WK001=0;
TX001='/home/n244drh/cdstfile.txt';
*TX001='/omni/rel520/rel52d2/base/output/P6DRH/20010207/JOBUNIV.091037/cdstfile.txt';
IF OCFILE1_OPEN(NAME:TX001 MODE:'INPUT')=0;TX003='CDSIN OPEN ERROR';WK001=1;END;
TX002=OCFILE1_READ();
OCTEXT_SETLENG(TX002 200);
*OCFILE1_READ(TX002);
IF SD100=1;
   TX003="CDSIN READ FAILED" ;
   WK001=11;
END;
LOOP WHILE (SD100=0);
     TX004=OCTEXT_SUB(TX002 1 6);
     TX005=OCTEXT_SUB(TX002 15 12);
     TX006=OCTEXT_SUB(TX002 27 12);
     TX007=OCTEXT_SUB(TX002 39 11);
     TX008=OCTEXT_SUB(TX002 50 10);
     TX006=OCTEXT_SUB(TX002 27 3) + OCTEXT_SUB(TX002 31 2) + OCTEXT_SUB(TX002 34 4);
     WK002=TX007;
     WK002=WK002/100;
     TX009=OCTEXT_SUB(TX002 60 6);
     SD040=TX009;
     TX010=OCTEXT_SUB(TX002 66 21);
     WK005=WK005+WK002;
     IF TX006=PH007;
     DBDBOBJ_VIEW(PLAN:TX004 PARTID:TX006)
     LOOP WHILE DBDBOBJ_NEXT();
**        IF SD040=DBDBOBJ_DE(DENUM:008);
           DBDBOBJ_SETDE(DENUM:351 VALUE:TX008);
           DBDBOBJ_SETDE(DENUM:352 VALUE:"2");
           DBDBOBJ_SETDE(DENUM:353 VALUE:SD040);
           DBDBOBJ_UPDATE(TRACE:1);
           TX020=DBDBOBJ_ERRMSG();
**        END;
         TX013=DBDBOBJ_DE(DENUM:008);
         TX014=DBDBOBJ_DE(DENUM:351);
         TX015=DBDBOBJ_DE(DENUM:352);
         SD040=DBDBOBJ_DE(DENUM:353);
         WK004=DBDBOBJ_DE(DENUM:200);
         OCSHOW(TX013 + ' ' + TX014 + ' ' + TX015);
         TX011=' ';
         TX012=' ';
         TX013=' ';
         WK003=0;
         WK004=0;
     ENDLOOP;
     END;
     TX002=OCFILE1_READ();
     IF SD100=1;
       WK001=11;
       TX003="CDSIN READ END";
     END;
     WK001=+1;
ENDLOOP;
OCFILE1_CLOSE();