********************************************************************************
**
**    Text File Name: ONE-T245-TO-T247.txt
**
**    Convert active T245's folders to T247's
**
**    Created by                           Date            
**    ==============================     ========     ========
**    Rick Sica                          07/02/09     wms1519 
**
SD080=999999999;
OCDATA_COCREATE(NAME:'T245TOT247' KEYLENG:27 NUMS:2 TX10S:2);
PLPLOBJ_VIEW(PLANLO:'A00000');
LOOP WHILE PLPLOBJ_NEXT();
   TX011=PLPLOBJ_DE(011);
   TX050='FEES305';
   PERFORM 'VTRAN.LOOP';
   TX050='FEES320';
   PERFORM 'VTRAN.LOOP';
   TX009=OCFMT_DATE3(SD003);
   VTFHOBJ_VIEW(PLAN:TX011 FILEIDLO:'20010101.A245' FILEIDHI:(TX009+'.Z245'));
   LOOP WHILE VTFHOBJ_NEXT();
      TX050=VTFHOBJ_DE(050);
      IF OCSUB(TX050 11 3)='245';
         TX051=OCSUB(TX050 1 10)+'247';
         PERFORM 'CHG.TO.T247';
         IF WK002=1;
            VTFHOBJ_DELETE();
         END;
      END;
   ENDLOOP;
ENDLOOP;
ROUTINE 'VTRAN.LOOP';
   TX051=TX050;
   VTFHOBJ_VIEW(PLAN:TX011 FILEID:TX050);
   LOOP WHILE VTFHOBJ_NEXT();
      PERFORM 'CHG.TO.T247';
   ENDLOOP;
GOBACK;
ROUTINE 'CHG.TO.T247';
   OCDATA_COEMPTY();
   WK002=0;TX098='';TX054=VTFHOBJ_DE(540);
   VTTDOBJ_VIEW(PLAN:TX011 FILEID:TX050 TRAN:'245');
   LOOP WHILE VTTDOBJ_NEXT();
      IF (VTTDOBJ_NUMDE(500)=1) AND (VTTDOBJ_NUMDE(510)=0);
         TX070=VTTDOBJ_DE(070);TX080=VTTDOBJ_DE(080);
         WK070=VTTDOBJ_NUMDE(470);
         WK060=VTTDOBJ_NUMDE(600);WK063=VTTDOBJ_NUMDE(630);
         TX100=VTTDOBJ_DE(801);
         BATIUT_INIT(PLAN:TX011 PARTID:TX070 TRAN:'247' FUND:TX080 DATE:WK070);
         BATIUT_SETDE(080 OCSUB(TX100 1 1));                 /* Fee Alloc Code */
         BATIUT_SETDE(050 OCSUB(TX100 2 1));                 /* Eligible Participants */
         BATIUT_SETDE(085 OCSUB(TX100 7 1));                 /* Fee Base Code */
         BATIUT_SETDE(090 OCSUB(TX100 11 3));                /* Post to Fund ID */
         BATIUT_SETDE(096 OCTEXT_TONUM(OCSUB(TX100 53 3)));  /* Sub Activity */
         BATIUT_SETDE(070 OCTEXT_TONUM((OCSUB(TX100 20 9)+'.'+OCSUB(TX100 29 2))));  /* Fee amount */
         BATIUT_SETDE(65 OCSUB(TX100 43 1));
         WK100=2;WK101=95;WK200=VTTDOBJ_NUMDE(200);
         LOOP UNTIL WK100>WK200;
            WK101=+5;WK102=800+WK100;
            BATIUT_SETDE(WK101 OCSUB(VTTDOBJ_DE(WK102) 7 51));  /* OmniScript Custom lines */
            WK100=+1;
         ENDLOOP;
         IF OCSUB(TX050 1 4)='FEES';
            VTTDOBJ_DELETE();
         END;
         BATIUT_ADDTRAN();
         BATIUT_TOVTRAN(FILEID:TX051);
         WK002=1;
         TX081=OCSUB(TX100 44 1);TX083=OCSUB(TX100 46 3);
         OCSHOW_LINE(TX011 ';' TX050 ';' TX070 ';' OCFMT(WK070 'Z,8') ';' TX080 ';' TX081 ';' TX083 ';' WK060 ';' WK063);
         TX099=TX070+TX080;
         IF TX098<>TX099;
            TX098=TX099;
            WK001=1;
         ELSE;
            WK001=+1;
         END;
         IF (TX054='Y') OR (TX081<>'');
            IF OCDATA_ITEMGET(KEY:(TX099+OCFMT(WK001 'Z,7')))=0;
               OCDATA_DESET(DENUM:1 VALUE:WK060);
               OCDATA_DESET(DENUM:2 VALUE:WK063);
               OCDATA_DESET(DENUM:500 VALUE:TX081);
               OCDATA_DESET(DENUM:501 VALUE:TX083);
               OCDATA_ITEMUPDATE();
            ELSE;
               OCSHOW_LINE('***DUPLICATE KEY: ' (TX099+OCFMT(WK001 'Z,7')));
            END;
         END;
      END;
   ENDLOOP;
   OCDATA_ITEMVIEW();
   LOOP WHILE OCDATA_ITEMNEXT();
      IF VTTDOBJ_GET(PLAN:TX011 FILEID:TX051 TRAN:'247' PARTID:OCSUB(OCDATA_ITEMKEY() 1 17) 
                     FUND:OCSUB(OCDATA_ITEMKEY() 18 3) TRANSEQ:OCTEXT_TONUM(OCSUB(OCDATA_ITEMKEY() 21 7)));
         VTTDOBJ_SETDE(600 OCDATA_NUMDE(DENUM:1));
         VTTDOBJ_SETDE(630 OCDATA_NUMDE(DENUM:2));
         VTTDOBJ_SETDE(581 OCDATA_DE(DENUM:500));
         VTTDOBJ_SETDE(583 OCDATA_DE(DENUM:501));
         VTTDOBJ_UPDATE();
      ELSE;
         OCSHOW_LINE('***NOT FOUND: ' OCDATA_ITEMKEY());
      END;
   ENDLOOP;
GOBACK;
